{
    "İstanbul" : [
        {
            "Mekan Adı" : "Barbaros Hayrettin Paşa Türbesi",
      "Kategori" : "Tarihi Yapı",
            "Adres" : {
                "İlçe" : "Beşiktaş",
                "Mahalle" : "Sinan Paşa",
                "Sokak" : "Beşiktaş"
            },
            "Kalabalıklığı" : 9.1,
            "Tanınırlık" : 8.9,
            "Puanlaması" : 9.4,
            "Pahalılığı" : 0.0,
            "Koordinat": "41.2306780, 29.0240264"
        }
    ]

}