{
    "İstanbul" : [
        {
            "Mekan Adı" : "AcrLoft",
            "Kategori" : "Modern Yapı",
            "Adres" : {
                "İlçe" : "Beykoz",
                "Mahalle" : "Acarlar Mahallesi",
                "Sokak" : "Şenkaya Çıkmazı"
            },
            "Kalabalıklığı" : 5.4,
            "Tanınırlık" : 4.1,
            "Puanlaması" : 8.2,
            "Pahalılığı" : 0,
            "Koordinat" : "41.1091663,29.1138195"
        }
    ]

}
