{
    "İstanbul" : [
        {
            "Mekan Adı" : "Karaköy Lokantası",
	        "Kategori" : "Restoran",
            "Adres" : {
                "İlçe" : "Karaköy",
                "Mahalle" : "Kemankeş Mustafa Paşa",
                "Sokak" : "Kemankeş Caddesi"
            },
            "Kalabalıklığı" : 7.4,
            "Tanınırlık" : 4.5, 
            "Puanlaması" : 8.8, 
            "Pahalılığı" : 4.2,
            "Koordinat"  : "41.0245922, 28.9800280"
        }
    ]

}
