{
    "İstanbul" : [
        {
            "Mekan Adı" : "Mükellef Karaköy",
	        "Kategori" : "Restoran",
            "Adres" : {
                "İlçe" : "Beyoğlu",
                "Mahalle" : "Kemankeş Karamustafa Paşa",
                "Sokak" : "Maliye Caddesi"
            },
            "Kalabalıklığı" : 5.2,
            "Tanınırlık" : 5.6,
            "Puanlaması" : 8.4,
            "Pahalılığı" : 5.0,
            "Koordinat"  : "41.0237531, 28.9770357"
        }
    ]

}
