{
    "Nevşehir" : [
        {
            "Mekan Adı" : "Nevşehir Müzesi",
      "Kategori" : "Müze",
            "Adres" : {
                "İlçe" : "Nevşehir Merkez",
                "Mahalle" : "350 Evler",
                "Sokak" : "Türbe Sokak"
            },
            "Kalabalıklığı" : 6.2,
            "Tanınırlık" : 3.7,
            "Puanlaması" : 8.4,
            "Pahalılığı" : 0.0,
            "Koordinat": "38.6275935, 34.7252209"
        }
    ]

}