{
    "İstanbul" : [
        {
            "Mekan Adı" : "İstanbul Rum Ortodoks Patrikhanesi",
      "Kategori" : "Tarihi Yapı",
            "Adres" : {
                "İlçe" : "Fatih",
                "Mahalle" : "Yavuz Sultan Selim",
                "Sokak" : "İncebel"
            },
            "Kalabalıklığı" : 9.4,
            "Tanınırlık" : 9.9,
            "Puanlaması" : 9.8,
            "Pahalılığı" : 0.0,
            "Koordinat": "41.0291638, 28.9516412"
        }
    ]

}