{
    "Uşak" : [
        {
            "Mekan Adı" : "Uşak Arkeoloji Müzesi",
            "Kategori" : "Müze",
            "Adres" : {
                "İlçe" : "Uşak",
                "Mahalle" : "Kuyucak",
                "Sokak" : "Orhan Dengiz"
            },
            "Kalabalıklığı" : 7.2,
            "Tanınırlıklığı" : 4.8,
            "Puanlaması" : 9.6,
            "Pahalılığı" : 0,
		"Koordinat" : "38.6741340,29.4032620"
        }
    ]

}
