{
    "İstanbul" : [
        {
            "Mekan Adı" : "Akyaka Park AVM",
            "Kategori" : "Modern Yapı",
            "Adres" : {
                "İlçe" : "Ümraniye",
                "Mahalle" : "Saray",
                "Sokak" : "Küçüksu Caddesi"
            },
            "Kalabalıklığı" : 7.9,
            "Tanınırlık" : 6.1,
            "Puanlaması" : 8.0,
            "Pahalılığı" : 0,
            "Koordinat"  : "41.0341674, 29.1114085"
        }
    ]

}
