{
    "İstanbul" : [
        {
            "Mekan Adı" : "Modoko AVM",
	        "Kategori" : "Modern Yapı",
            "Adres" : {
                "İlçe" : "Ümraniye",
                "Mahalle" : "Yukarı Dudullu Mahallesi",
                "Sokak" : "Modoko Mobilyacılar Sitesi"
            },
            "Kalabalıklığı" : 7.4,
            "Tanınırlık" : 7.4,
            "Puanlaması" : 8.2,
            "Pahalılığı" : 0.0,
            "Koordinat"  : "41.0084607, 29.1570597"
        }
    ]

}
