{
    "İstanbul": [
        {
            "Mekan Adı" : "İstanbul Büyükşehir Belediyesi Şehir Tiyatroları Musahipzade Celâl Sahnesi",
	        "Kategori" : "Tarihi Yapı",
            "Adres" : {
                "İlçe" : "Üsküdar",
                "Mahalle" : "Aziz Mahmut Hüdayi",
                "Sokak" : "Halk Caddesi"
            },
            "Kalabalıklığı" : 8.0, 
            "Tanınırlık" : 6.8,
            "Puanlaması" : 9.2,
            "Pahalılığı" : 0.0,
            "Koordinat"  : "41.01966, 29.01281"
        }
    ]

}
